[
  {
    "spelling": ["монер", "monero"],
    "symbol": "XMR",
    "currency": {
      "name": "XMR"
    }
  },
  {
    "spelling": ["тон", "дуров"],
    "symbol": "TON",
    "currency": {
      "name": "TON"
    }
  },
  {
    "spelling": ["битков", "биток", "биткоин", "биткойн", "битка"],
    "symbol": "BTC",
    "currency": {
      "name": "BTC"
    }
  },
  {
    "spelling": ["doge", "доге"],
    "symbol": "DOGE",
    "currency": {
      "name": "DOGE"
    }
  },
  {
    "spelling": ["нир", "ниар", "неар"],
    "symbol": "NEAR",
    "display_name": "NEAR",
    "currency": {
      "name": "NEAR"
    }
  },
  {
    "spelling": ["эфир"],
    "symbol": "ETH",
    "currency": {
      "name": "ETH"
    }
  }
]
