[
  {
    "spelling": ["руб", "рубль", "рубля", "рублей"],
    "symbol": "₽",
    "currency": {
      "name": "RUB",
      "code": "643"
    }
  },
  {
    "spelling": ["евро"],
    "symbol": "€",
    "currency": {
      "name": "EUR",
      "code": "978"
    }
  },
  {
    "spelling": ["доллар", "доллара", "долларов", "бакс", "баксов", "бакса"],
    "symbol": "$",
    "currency": {
      "name": "USD",
      "code": "840"
    }
  },
  {
    "spelling": ["фунт", "фунтов", "фунта"],
    "symbol": "£",
    "currency": {
      "name": "GBP",
      "code": "826"
    }
  },
  {
    "spelling": ["франк", "франков", "франка"],
    "symbol": "₣",
    "currency": {
      "name": "CHF",
      "code": "756"
    }
  },
  {
    "spelling": ["кдол", "канадских долларов", "канадский доллар"],
    "symbol": "С$",
    "currency": {
      "name": "CAD",
      "code": "124"
    }
  },
  {
    "spelling": ["адол", "австралийских долларов", "австралийский доллар"],
    "symbol": "A$",
    "currency": {
      "name": "AUD",
      "code": "036"
    }
  },
  {
    "spelling": ["сдол", "сингапурских долларов", "сингапурский доллар"],
    "symbol": "S$",
    "currency": {
      "name": "SGD",
      "code": "702"
    }
  },
  {
    "spelling": ["лев", "левы", "левов", "лева"],
    "symbol": "ЛВ",
    "currency": {
      "name": "BGN",
      "code": "975"
    }
  },
  {
    "spelling": ["манат", "манатов", "маната"],
    "symbol": "₼",
    "currency": {
      "name": "AZN",
      "code": "944"
    }
  },
  {
    "spelling": ["белорусский рубль", "белорусских рублей", "белорусских рублях", "белр"],
    "symbol": "Br",
    "currency": {
      "name": "BYN",
      "code": "933"
    }
  },
  {
    "spelling": ["лари"],
    "symbol": "₾",
    "currency": {
      "name": "GEL",
      "code": "981"
    }
  },
  {
    "spelling": ["дирхам", "дирхамов", "дирхама"],
    "symbol": "Dh",
    "currency": {
      "name": "AED",
      "code": "784"
    }
  },
  {
    "spelling": ["шекелей", "шекель", "шекеля"],
    "symbol": "₪",
    "currency": {
      "name": "ILS",
      "code": "376"
    }
  },
  {
    "spelling": ["злотых", "злотый", "злт"],
    "symbol": "zł",
    "currency": {
      "name": "PLN",
      "code": "985"
    }
  },
  {
    "spelling": ["лиры", "лир", "лира"],
    "symbol": "₺",
    "currency": {
      "name": "TRY",
      "code": "949"
    }
  },
  {
    "spelling": ["юань", "юаня", "юаней"],
    "symbol": "¥",
    "currency": {
      "name": "CNY",
      "code": "156"
    }
  },
  {
    "spelling": ["гонконгских долларов", "гонконгский доллар", "гдол"],
    "symbol": "H$",
    "currency": {
      "name": "HKD",
      "code": "344"
    }
  },
  {
    "spelling": ["шведских крон", "шведская крона", "шведские кроны"],
    "symbol": "Kr",
    "currency": {
      "name": "SEK",
      "code": "752"
    }
  },
  {
    "spelling": ["чешских крон", "чешская крона", "чешские кроны"],
    "symbol": "Kč",
    "currency": {
      "name": "CZK",
      "code": "203"
    }
  },
  {
    "spelling": ["бат", "батов", "бата"],
    "symbol": "฿",
    "currency": {
      "name": "THB",
      "code": "764"
    }
  },
  {
    "spelling": ["рупий", "рупия", "рупии"],
    "symbol": "₹",
    "currency": {
      "name": "INR",
      "code": "356"
    }
  },
  {
    "spelling": ["иена", "йена", "иен", "йен", "иены", "йены"],
    "symbol": "¥",
    "currency": {
      "name": "JPY",
      "code": "392"
    }
  },
  {
    "spelling": ["форинты", "форинт", "форинтов"],
    "symbol": "Ft",
    "currency": {
      "name": "HUF",
      "code": "348"
    }
  },
  {
    "spelling": ["тенге"],
    "symbol": "₸",
    "currency": {
      "name": "KZT",
      "code": "398"
    }
  },
  {
    "spelling": ["драм", "драмов", "драма"],
    "symbol": "Դ",
    "currency": {
      "name": "AMD",
      "code": "051"
    }
  },
  {
    "spelling": ["вона", "вон", "воны"],
    "symbol": "₩",
    "currency": {
      "name": "KRW",
      "code": "410"
    }
  },
  {
    "spelling": ["идр", "индонезийская рупия", "индонезийских рупий", "индонезийские рупии"],
    "symbol": "Rp",
    "currency": {
      "name": "IDR",
      "code": "360"
    }
  },
  {
    "spelling": ["донг", "донгов", "донга"],
    "symbol": "₫",
    "currency": {
      "name": "VND",
      "code": "704"
    }
  },
  {
    "spelling": ["норвежских крон", "норвежская крона", "норвежские кроны", "нкрн"],
    "symbol": "NKr",
    "currency": {
      "name": "NOK",
      "code": "578"
    }
  },
  {
    "spelling": ["гривна", "грн", "гривен", "гривны"],
    "symbol": "UAH",
    "currency": {
      "name": "UAH"
    }
  }
]
